#FIG 3.1
Landscape
Center
Inches
1200 2
6 3900 1350 4575 1650
2 1 0 1 -1 7 0 0 -1 0.000 0 0 -1 0 0 7
	 4350 1350 4500 1350 4575 1500 4500 1650 4350 1650 4275 1500
	 4350 1350
4 2 -1 0 0 0 12 0.0000 4 135 225 4125 1650 0.3\001
-6
2 1 0 1 -1 7 0 0 -1 0.000 0 0 -1 0 0 7
	 4875 300 5025 300 5100 450 5025 600 4875 600 4800 450
	 4875 300
3 2 0 1 -1 7 0 0 -1 0.000 0 1 0 3
	1 1 1.00 60.00 120.00
	 4425 1350 4425 825 4800 525
	 0.00 0.00 4376.88 1056.36 4376.88 925.11 4469.01 733.42
	 4562.76 658.42 0.00 0.00
3 2 0 1 -1 7 0 0 -1 0.000 0 1 0 3
	1 1 1.00 60.00 120.00
	 5025 600 4950 1200 4500 1425
	 0.00 0.00 5045.47 941.57 5026.72 1091.57 4886.17 1290.22
	 4773.67 1346.47 0.00 0.00
4 2 -1 0 0 0 12 0.0000 4 135 225 4725 375 0.4\001
