%!PS-Adobe-2.0 EPSF-2.0
%%Title: rcs.fig
%%Creator: fig2dev Version 3.1 Patchlevel 2
%%CreationDate: Mon May  4 03:13:08 1998
%%For: jmacd@icw.EECS.Berkeley.EDU (Josh MacDonald,,,,ARN)
%Magnification: 1.00
%%Orientation: Portrait
%%BoundingBox: 0 0 121 162
%%Pages: 0
%%BeginSetup
%%IncludeFeature: *PageSize Letter
%%EndSetup
%%EndComments
/$F2psDict 200 dict def
$F2psDict begin
$F2psDict /mtrx matrix put
/col-1 {0 setgray} bind def
/col0 {0.000 0.000 0.000 srgb} bind def
/col1 {0.000 0.000 1.000 srgb} bind def
/col2 {0.000 1.000 0.000 srgb} bind def
/col3 {0.000 1.000 1.000 srgb} bind def
/col4 {1.000 0.000 0.000 srgb} bind def
/col5 {1.000 0.000 1.000 srgb} bind def
/col6 {1.000 1.000 0.000 srgb} bind def
/col7 {1.000 1.000 1.000 srgb} bind def
/col8 {0.000 0.000 0.560 srgb} bind def
/col9 {0.000 0.000 0.690 srgb} bind def
/col10 {0.000 0.000 0.820 srgb} bind def
/col11 {0.530 0.810 1.000 srgb} bind def
/col12 {0.000 0.560 0.000 srgb} bind def
/col13 {0.000 0.690 0.000 srgb} bind def
/col14 {0.000 0.820 0.000 srgb} bind def
/col15 {0.000 0.560 0.560 srgb} bind def
/col16 {0.000 0.690 0.690 srgb} bind def
/col17 {0.000 0.820 0.820 srgb} bind def
/col18 {0.560 0.000 0.000 srgb} bind def
/col19 {0.690 0.000 0.000 srgb} bind def
/col20 {0.820 0.000 0.000 srgb} bind def
/col21 {0.560 0.000 0.560 srgb} bind def
/col22 {0.690 0.000 0.690 srgb} bind def
/col23 {0.820 0.000 0.820 srgb} bind def
/col24 {0.500 0.190 0.000 srgb} bind def
/col25 {0.630 0.250 0.000 srgb} bind def
/col26 {0.750 0.380 0.000 srgb} bind def
/col27 {1.000 0.500 0.500 srgb} bind def
/col28 {1.000 0.630 0.630 srgb} bind def
/col29 {1.000 0.750 0.750 srgb} bind def
/col30 {1.000 0.880 0.880 srgb} bind def
/col31 {1.000 0.840 0.000 srgb} bind def

end
save
-31.0 178.0 translate
1 -1 scale

/cp {closepath} bind def
/ef {eofill} bind def
/gr {grestore} bind def
/gs {gsave} bind def
/sa {save} bind def
/rs {restore} bind def
/l {lineto} bind def
/m {moveto} bind def
/rm {rmoveto} bind def
/n {newpath} bind def
/s {stroke} bind def
/sh {show} bind def
/slc {setlinecap} bind def
/slj {setlinejoin} bind def
/slw {setlinewidth} bind def
/srgb {setrgbcolor} bind def
/rot {rotate} bind def
/sc {scale} bind def
/sd {setdash} bind def
/ff {findfont} bind def
/sf {setfont} bind def
/scf {scalefont} bind def
/sw {stringwidth} bind def
/tr {translate} bind def
/tnt {dup dup currentrgbcolor
  4 -2 roll dup 1 exch sub 3 -1 roll mul add
  4 -2 roll dup 1 exch sub 3 -1 roll mul add
  4 -2 roll dup 1 exch sub 3 -1 roll mul add srgb}
  bind def
/shd {dup dup currentrgbcolor 4 -2 roll mul 4 -2 roll mul
  4 -2 roll mul srgb} bind def
 /DrawEllipse {
	/endangle exch def
	/startangle exch def
	/yrad exch def
	/xrad exch def
	/y exch def
	/x exch def
	/savematrix mtrx currentmatrix def
	x y tr xrad yrad sc 0 0 1 startangle endangle arc
	closepath
	savematrix setmatrix
	} def

/$F2psBegin {$F2psDict begin /$F2psEnteredState save def} def
/$F2psEnd {$F2psEnteredState restore end} def
%%EndProlog

$F2psBegin
10 setmiterlimit
n 0 792 m 0 0 l 612 0 l 612 792 l cp clip
 0.06000 0.06000 sc
7.500 slw
% Ellipse
n 742 2767 54 54 0 360 DrawEllipse gs col7 0.00 shd ef gr gs col-1 s gr

% Ellipse
n 764 418 54 54 0 360 DrawEllipse gs col7 0.00 shd ef gr gs col-1 s gr

% Ellipse
n 1942 1582 54 54 0 360 DrawEllipse gs col7 0.00 shd ef gr gs col-1 s gr

% Ellipse
n 1950 360 54 54 0 360 DrawEllipse gs col7 0.00 shd ef gr gs col-1 s gr

% Ellipse
n 742 1567 54 54 0 360 DrawEllipse gs col7 0.00 shd ef gr gs col-1 s gr

% Polyline
gs  clippath
780 2628 m 750 2748 l 720 2628 l 720 2790 l 780 2790 l  cp clip
n 750 2775 m 750 1650 l gs col7 0.00 shd ef gr gs col-1 s gr gr

% arrowhead
n 780 2628 m 750 2748 l 720 2628 l 750 2628 l 780 2628 l  cp gs 0.00 setgray ef gr  col-1 s
% Polyline
gs  clippath
780 1428 m 750 1548 l 720 1428 l 720 1590 l 780 1590 l  cp clip
n 750 1575 m 750 450 l gs col7 0.00 shd ef gr gs col-1 s gr gr

% arrowhead
n 780 1428 m 750 1548 l 720 1428 l 750 1428 l 780 1428 l  cp gs 0.00 setgray ef gr  col-1 s
% Polyline
gs  clippath
1920 522 m 1950 402 l 1980 522 l 1980 360 l 1920 360 l  cp clip
n 1950 1500 m 1950 375 l gs col7 0.00 shd ef gr gs col-1 s gr gr

% arrowhead
n 1920 522 m 1950 402 l 1980 522 l 1950 522 l 1920 522 l  cp gs 0.00 setgray ef gr  col-1 s
% Polyline
gs  clippath
1765 1703 m 1870 1639 l 1807 1745 l 1922 1631 l 1879 1588 l  cp clip
n 765 2745 m 1890 1620 l gs col7 0.00 shd ef gr gs col-1 s gr gr

% arrowhead
n 1765 1703 m 1870 1639 l 1807 1745 l 1786 1724 l 1765 1703 l  cp gs 0.00 setgray ef gr  col-1 s
/Times-Roman ff 180.00 scf sf
825 2925 m
gs 1 -1 sc (1.1) col-1 sh gr
/Times-Roman ff 180.00 scf sf
2025 1575 m
gs 1 -1 sc (1.1.1.1) col-1 sh gr
/Times-Roman ff 180.00 scf sf
2025 375 m
gs 1 -1 sc (1.1.1.2) col-1 sh gr
/Times-Roman ff 180.00 scf sf
825 375 m
gs 1 -1 sc (1.3) col-1 sh gr
/Times-Roman ff 180.00 scf sf
825 1575 m
gs 1 -1 sc (1.2) col-1 sh gr
/Times-Roman ff 180.00 scf sf
525 2100 m
gs 1 -1 sc (d1) col-1 sh gr
/Times-Roman ff 180.00 scf sf
1500 2325 m
gs 1 -1 sc (d2) col-1 sh gr
/Times-Roman ff 180.00 scf sf
525 975 m
gs 1 -1 sc (d3) col-1 sh gr
/Times-Roman ff 180.00 scf sf
2025 975 m
gs 1 -1 sc (d4) col-1 sh gr
$F2psEnd
rs
