%!PS-Adobe-2.0 EPSF-2.0
%%Title: unacceptable.fig
%%Creator: fig2dev Version 3.1 Patchlevel 2
%%CreationDate: Mon May  4 09:23:26 1998
%%For: jmacd@icw.EECS.Berkeley.EDU (Josh MacDonald,,,,ARN)
%Magnification: 1.00
%%Orientation: Portrait
%%BoundingBox: 0 0 107 243
%%Pages: 0
%%BeginSetup
%%IncludeFeature: *PageSize Letter
%%EndSetup
%%EndComments
/$F2psDict 200 dict def
$F2psDict begin
$F2psDict /mtrx matrix put
/col-1 {0 setgray} bind def
/col0 {0.000 0.000 0.000 srgb} bind def
/col1 {0.000 0.000 1.000 srgb} bind def
/col2 {0.000 1.000 0.000 srgb} bind def
/col3 {0.000 1.000 1.000 srgb} bind def
/col4 {1.000 0.000 0.000 srgb} bind def
/col5 {1.000 0.000 1.000 srgb} bind def
/col6 {1.000 1.000 0.000 srgb} bind def
/col7 {1.000 1.000 1.000 srgb} bind def
/col8 {0.000 0.000 0.560 srgb} bind def
/col9 {0.000 0.000 0.690 srgb} bind def
/col10 {0.000 0.000 0.820 srgb} bind def
/col11 {0.530 0.810 1.000 srgb} bind def
/col12 {0.000 0.560 0.000 srgb} bind def
/col13 {0.000 0.690 0.000 srgb} bind def
/col14 {0.000 0.820 0.000 srgb} bind def
/col15 {0.000 0.560 0.560 srgb} bind def
/col16 {0.000 0.690 0.690 srgb} bind def
/col17 {0.000 0.820 0.820 srgb} bind def
/col18 {0.560 0.000 0.000 srgb} bind def
/col19 {0.690 0.000 0.000 srgb} bind def
/col20 {0.820 0.000 0.000 srgb} bind def
/col21 {0.560 0.000 0.560 srgb} bind def
/col22 {0.690 0.000 0.690 srgb} bind def
/col23 {0.820 0.000 0.820 srgb} bind def
/col24 {0.500 0.190 0.000 srgb} bind def
/col25 {0.630 0.250 0.000 srgb} bind def
/col26 {0.750 0.380 0.000 srgb} bind def
/col27 {1.000 0.500 0.500 srgb} bind def
/col28 {1.000 0.630 0.630 srgb} bind def
/col29 {1.000 0.750 0.750 srgb} bind def
/col30 {1.000 0.880 0.880 srgb} bind def
/col31 {1.000 0.840 0.000 srgb} bind def

end
save
-72.0 254.0 translate
1 -1 scale

/cp {closepath} bind def
/ef {eofill} bind def
/gr {grestore} bind def
/gs {gsave} bind def
/sa {save} bind def
/rs {restore} bind def
/l {lineto} bind def
/m {moveto} bind def
/rm {rmoveto} bind def
/n {newpath} bind def
/s {stroke} bind def
/sh {show} bind def
/slc {setlinecap} bind def
/slj {setlinejoin} bind def
/slw {setlinewidth} bind def
/srgb {setrgbcolor} bind def
/rot {rotate} bind def
/sc {scale} bind def
/sd {setdash} bind def
/ff {findfont} bind def
/sf {setfont} bind def
/scf {scalefont} bind def
/sw {stringwidth} bind def
/tr {translate} bind def
/tnt {dup dup currentrgbcolor
  4 -2 roll dup 1 exch sub 3 -1 roll mul add
  4 -2 roll dup 1 exch sub 3 -1 roll mul add
  4 -2 roll dup 1 exch sub 3 -1 roll mul add srgb}
  bind def
/shd {dup dup currentrgbcolor 4 -2 roll mul 4 -2 roll mul
  4 -2 roll mul srgb} bind def
/$F2psBegin {$F2psDict begin /$F2psEnteredState save def} def
/$F2psEnd {$F2psEnteredState restore end} def
%%EndProlog

$F2psBegin
10 setmiterlimit
n 0 792 m 0 0 l 612 0 l 612 792 l cp clip
 0.06000 0.06000 sc
7.500 slw
% Polyline
n 2100 3900 m 2700 3000 l 2700 2100 l 2700 1200 l gs col-1 s gr 
% Polyline
n 2100 3900 m 1500 3000 l 1500 2100 l 1500 1200 l 1500 300 l gs col-1 s gr 
% Polyline
n 2100 3900 m 2100 3000 l 2100 2100 l gs col-1 s gr 
% Polyline
n 2100 2100 m 2700 1200 l gs col-1 s gr 
% Polyline
n 2100 2100 m 2100 1200 l gs col-1 s gr 
% Polyline
n 2100 1200 m 1500 300 l gs col-1 s gr 
/Times-Roman ff 180.00 scf sf
2100 4200 m
gs 1 -1 sc (N.1) col-1 sh gr
/Times-Roman ff 180.00 scf sf
2700 3000 m
gs 1 -1 sc (N.2) col-1 sh gr
/Times-Roman ff 180.00 scf sf
2700 2100 m
gs 1 -1 sc (N.3) col-1 sh gr
/Times-Roman ff 180.00 scf sf
2700 1200 m
gs 1 -1 sc (N.4) col-1 sh gr
/Times-Roman ff 180.00 scf sf
1800 2100 m
gs 1 -1 sc (L.2) col-1 sh gr
/Times-Roman ff 180.00 scf sf
1800 3000 m
gs 1 -1 sc (L.1) col-1 sh gr
/Times-Roman ff 180.00 scf sf
1200 3000 m
gs 1 -1 sc (M.1) col-1 sh gr
/Times-Roman ff 180.00 scf sf
1200 2100 m
gs 1 -1 sc (M.2) col-1 sh gr
/Times-Roman ff 180.00 scf sf
1200 1200 m
gs 1 -1 sc (M.3) col-1 sh gr
/Times-Roman ff 180.00 scf sf
1200 300 m
gs 1 -1 sc (M.4) col-1 sh gr
/Times-Roman ff 180.00 scf sf
2100 1200 m
gs 1 -1 sc (L.3) col-1 sh gr
$F2psEnd
rs
