#FIG 3.1
Portrait
Center
Inches
1200 2
2 1 0 1 -1 7 0 0 -1 0.000 0 0 -1 0 0 4
	 2100 3900 2700 3000 2700 2100 2700 1200
2 1 0 1 -1 7 0 0 -1 0.000 0 0 -1 0 0 5
	 2100 3900 1500 3000 1500 2100 1500 1200 1500 300
2 1 0 1 -1 7 0 0 -1 0.000 0 0 -1 0 0 3
	 2100 3900 2100 3000 2100 2100
2 1 0 1 -1 7 0 0 -1 0.000 0 0 -1 0 0 2
	 2100 2100 2700 1200
2 1 0 1 -1 7 0 0 -1 0.000 0 0 -1 0 0 2
	 2100 2100 2100 1200
2 1 0 1 -1 7 0 0 -1 0.000 0 0 -1 0 0 2
	 2100 1200 1500 300
4 0 -1 0 0 0 12 0.0000 4 135 270 2100 4200 N.1\001
4 0 -1 0 0 0 12 0.0000 4 135 270 2700 3000 N.2\001
4 0 -1 0 0 0 12 0.0000 4 135 270 2700 2100 N.3\001
4 0 -1 0 0 0 12 0.0000 4 135 270 2700 1200 N.4\001
4 0 -1 0 0 0 12 0.0000 4 135 240 1800 2100 L.2\001
4 0 -1 0 0 0 12 0.0000 4 135 240 1800 3000 L.1\001
4 0 -1 0 0 0 12 0.0000 4 135 300 1200 3000 M.1\001
4 0 -1 0 0 0 12 0.0000 4 135 300 1200 2100 M.2\001
4 0 -1 0 0 0 12 0.0000 4 135 300 1200 1200 M.3\001
4 0 -1 0 0 0 12 0.0000 4 135 300 1200 300 M.4\001
4 0 -1 0 0 0 12 0.0000 4 135 240 2100 1200 L.3\001
